{
  "test_profiles": ["Debug", "FaultyFiber", "FaultyAsan", "FaultyTsan"],
  "test_targets": ["unit_test", "stress_test"],
  "lint_files": ["cyclic_barrier.hpp"],
  "submit_files": ["cyclic_barrier.hpp"],
  "test_perf": true
}
